{
  "Twitter" : {
    "consumerKey": "S422KEDqLFlw6xf3gc7MzsoDM",
    "consumerSecret": "hjHWpmiOe03HYaF0phLTVki4pZtDdSW0BXTbaj4XFvmPbCmLD4",
    "accessToken": "3627114675-eFe4LhqXsfX70AKznxRjUMEJvoX8559tB1wEafa",
    "accessTokenSecret": "8sUxtvssXxUDd5sXDuPUF2CaaUdw8PkgTFhLhlPMNpyDa",
    "callBackUrl": ""
  },
  "AWS" : {
    "accessKeyId": "AKIAITK5Y7FHNMSBAI6Q",
    "secretAccessKey": "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",
    "signatureVersion": "v4"
  }
}